Design Route Status
                                               :      # nets :
   ------------------------------------------- : ----------- :
   # of logical nets.......................... :         313 :
       # of nets not needing routing.......... :         112 :
           # of internally routed nets........ :         112 :
       # of routable nets..................... :         201 :
           # of fully routed nets............. :         201 :
       # of nets with routing errors.......... :           0 :
   ------------------------------------------- : ----------- :

